SRR1074359.vcf:1	16341649	.	C	T	90	.	DP=251;AD=106,145;VDB=2.12855e-10;SGB=-0.693147;RPB=0.136174;MQB=1;MQSB=1;BQB=0.00118947;MQ0F=0;ICB=1;HOB=0.5;AC=1;AN=2;DP4=86,20,120,25;MQ=20	GT:PL:AD	0/1:123,0,94:106,145
SRR1074719.vcf:1	16341649	.	C	G	29.3551	.	DP=85;AD=46,37;VDB=0.127017;SGB=-0.693141;RPB=0.0632202;MQB=1;MQSB=1;BQB=0.604593;MQ0F=0;ICB=1;HOB=0.5;AC=1;AN=2;DP4=35,11,35,2;MQ=20	GT:PL:AD	0/1:62,0,120:46,37
SRR1089424.vcf:1	16341649	.	C	T	71	.	DP=267;AD=95,170;VDB=1.18058e-07;SGB=-0.693147;RPB=0.878908;MQB=1;MQSB=1;BQB=0.0103778;MQ0F=0;ICB=1;HOB=0.5;AC=1;AN=2;DP4=81,14,140,30;MQ=20	GT:PL:AD	0/1:104,0,38:95,170
SRR1092349.vcf:1	16341649	.	C	G	73	.	DP=189;AD=78,95;VDB=0.136485;SGB=-0.693147;RPB=0.0131806;MQB=1;MQSB=1;BQB=0.631105;MQ0F=0;ICB=1;HOB=0.5;AC=1;AN=2;DP4=64,14,83,12;MQ=20	GT:PL:AD	0/1:106,0,101:78,95
SRR1092985.vcf:1	16341649	.	C	T	94	.	DP=266;AD=93,167;VDB=1.04733e-08;SGB=-0.693147;RPB=0.724112;MQB=1;MQSB=1;BQB=0.509461;MQ0F=0;ICB=1;HOB=0.5;AC=1;AN=2;DP4=54,39,100,67;MQ=20	GT:PL:AD	0/1:127,0,68:93,167
SRR1096174.vcf:1	16341649	.	C	T	90	.	DP=252;AD=95,157;VDB=7.54243e-09;SGB=-0.693147;RPB=0.366528;MQB=1;MQSB=1;BQB=0.00151672;MQ0F=0;ICB=1;HOB=0.5;AC=1;AN=2;DP4=77,18,116,41;MQ=20	GT:PL:AD	0/1:123,0,65:95,157
SRR1096662.vcf:1	16341649	.	C	T	75	.	DP=195;AD=64,131;VDB=0.00775959;SGB=-0.693147;RPB=0.836665;MQB=1;MQSB=1;BQB=2.44093e-09;MQ0F=0;ICB=1;HOB=0.5;AC=1;AN=2;DP4=50,14,92,39;MQ=20	GT:PL:AD	0/1:108,0,39:64,131
SRR1307677.vcf:1	16341649	.	C	T	98	.	DP=212;AD=84,126;VDB=3.00723e-05;SGB=-0.693147;RPB=0.767931;MQB=1;MQSB=1;BQB=6.85174e-10;MQ0F=0;ICB=1;HOB=0.5;AC=1;AN=2;DP4=60,24,86,40;MQ=20	GT:PL:AD	0/1:131,0,93:84,126
SRR1314832.vcf:1	16341649	.	C	T	101	.	DP=231;AD=105,122;VDB=1.24773e-05;SGB=-0.693147;RPB=0.415337;MQB=1;MQSB=1;BQB=3.60842e-05;MQ0F=0;ICB=1;HOB=0.5;AC=1;AN=2;DP4=84,21,88,34;MQ=20	GT:PL:AD	0/1:134,0,112:105,122
SRR1317920.vcf:1	16341649	.	C	T	64	.	DP=215;AD=64,147;VDB=0.00232245;SGB=-0.693147;RPB=0.971808;MQB=1;MQSB=1;BQB=1.4685e-06;MQ0F=0;ICB=1;HOB=0.5;AC=1;AN=2;DP4=46,18,98,49;MQ=20	GT:PL:AD	0/1:97,0,20:64,147
SRR1319626.vcf:1	16341649	.	C	T	103	.	DP=209;AD=81,127;VDB=0.0317941;SGB=-0.693147;RPB=0.853784;MQB=1;MQSB=1;BQB=3.08156e-09;MQ0F=0;ICB=1;HOB=0.5;AC=1;AN=2;DP4=62,19,76,51;MQ=20	GT:PL:AD	0/1:136,0,82:81,127
SRR1320225.vcf:1	16341649	.	C	T	73	.	DP=190;AD=63,126;VDB=0.00872016;SGB=-0.693147;RPB=0.379516;MQB=1;MQSB=1;BQB=5.59433e-09;MQ0F=0;ICB=1;HOB=0.5;AC=1;AN=2;DP4=55,8,94,32;MQ=20	GT:PL:AD	0/1:106,0,28:63,126
SRR1320321.vcf:1	16341649	.	C	T	82	.	DP=230;AD=82,148;VDB=8.05751e-06;SGB=-0.693147;RPB=0.193883;MQB=1;MQSB=1;BQB=7.25713e-07;MQ0F=0;ICB=1;HOB=0.5;AC=1;AN=2;DP4=65,17,109,39;MQ=20	GT:PL:AD	0/1:115,0,54:82,148
SRR1320469.vcf:1	16341649	.	C	T	104	.	DP=223;AD=94,129;VDB=1.70132e-06;SGB=-0.693147;RPB=0.401203;MQB=1;MQSB=1;BQB=1.60607e-05;MQ0F=0;ICB=1;HOB=0.5;AC=1;AN=2;DP4=71,23,87,42;MQ=20	GT:PL:AD	0/1:137,0,100:94,129
SRR1322900.vcf:1	16341649	.	C	T	102	.	DP=213;AD=87,123;VDB=0.00358012;SGB=-0.693147;RPB=0.796022;MQB=1;MQSB=1;BQB=6.78042e-09;MQ0F=0;ICB=1;HOB=0.5;AC=1;AN=2;DP4=62,25,83,40;MQ=20	GT:PL:AD	0/1:135,0,100:87,123
SRR1328101.vcf:1	16341649	.	C	G	77	.	DP=210;AD=95,104;VDB=0.186383;SGB=-0.693147;RPB=0.000178421;MQB=1;MQSB=1;BQB=0.976498;MQ0F=0;ICB=1;HOB=0.5;AC=1;AN=2;DP4=75,20,90,14;MQ=20	GT:PL:AD	0/1:110,0,114:95,104
SRR1329003.vcf:1	16341649	.	C	T	95	.	DP=228;AD=85,142;VDB=4.75706e-09;SGB=-0.693147;RPB=0.0701345;MQB=1;MQSB=1;BQB=1.52728e-07;MQ0F=0;ICB=1;HOB=0.5;AC=1;AN=2;DP4=64,21,94,48;MQ=20	GT:PL:AD	0/1:128,0,72:85,142
SRR1330327.vcf:1	16341649	.	C	T	65	.	DP=242;AD=74,166;VDB=9.8583e-07;SGB=-0.693147;RPB=0.660351;MQB=1;MQSB=1;BQB=0.000458814;MQ0F=0;ICB=1;HOB=0.5;AC=1;AN=2;DP4=54,20,109,57;MQ=20	GT:PL:AD	0/1:98,0,15:74,166
SRR1331639.vcf:1	16341649	.	C	T	54	.	DP=143;AD=54,88;VDB=0.935183;SGB=-0.693147;RPB=0.648432;MQB=1;MQSB=1;BQB=0.00120467;MQ0F=0;ICB=1;HOB=0.5;AC=1;AN=2;DP4=52,2,80,8;MQ=20	GT:PL:AD	0/1:87,0,35:54,88
SRR1337173.vcf:1	16341649	.	C	T	66	.	DP=259;AD=83,172;VDB=8.1143e-11;SGB=-0.693147;RPB=0.233697;MQB=1;MQSB=1;BQB=0.0579843;MQ0F=0;ICB=1;HOB=0.5;AC=1;AN=2;DP4=65,18,127,45;MQ=20	GT:PL:AD	0/1:99,0,22:83,172
SRR1345760.vcf:1	16341649	.	C	T	90	.	DP=255;AD=96,158;VDB=2.00709e-07;SGB=-0.693147;RPB=0.968991;MQB=1;MQSB=1;BQB=0.275593;MQ0F=0;ICB=1;HOB=0.5;AC=1;AN=2;DP4=70,26,118,40;MQ=20	GT:PL:AD	0/1:123,0,75:96,158
SRR1347937.vcf:1	16341649	.	C	G	46.3433	.	DP=187;AD=89,71;VDB=0.534601;SGB=-0.693147;RPB=1.07132e-05;MQB=1;MQSB=1;BQB=0.0787222;MQ0F=0;ICB=1;HOB=0.5;AC=1;AN=2;DP4=64,25,64,7;MQ=20	GT:PL:AD	0/1:79,0,129:89,71
SRR1368264.vcf:1	16341649	.	C	T	95	.	DP=235;AD=87,143;VDB=3.22429e-07;SGB=-0.693147;RPB=0.194194;MQB=1;MQSB=1;BQB=3.59131e-06;MQ0F=0;ICB=1;HOB=0.5;AC=1;AN=2;DP4=73,14,96,47;MQ=20	GT:PL:AD	0/1:128,0,62:87,143
SRR1368574.vcf:1	16341649	.	C	T	90	.	DP=199;AD=76,121;VDB=0.0402382;SGB=-0.693147;RPB=0.717358;MQB=1;MQSB=1;BQB=1.30885e-08;MQ0F=0;ICB=1;HOB=0.5;AC=1;AN=2;DP4=69,7,89,32;MQ=20	GT:PL:AD	0/1:123,0,52:76,121
SRR1375796.vcf:1	16341649	.	C	T	64	.	DP=240;AD=83,156;VDB=7.40543e-11;SGB=-0.693147;RPB=0.120689;MQB=1;MQSB=1;BQB=1.48375e-08;MQ0F=0;ICB=1;HOB=0.5;AC=1;AN=2;DP4=73,10,132,24;MQ=20	GT:PL:AD	0/1:97,0,29:83,156
SRR1376764.vcf:1	16341649	.	C	G	78	.	DP=234;AD=85,134;VDB=5.82657e-05;SGB=-0.693147;RPB=0.12691;MQB=1;MQSB=1;BQB=0.982648;MQ0F=0;ICB=1;HOB=0.5;AC=1;AN=2;DP4=76,9,113,21;MQ=20	GT:PL:AD	0/1:111,0,57:85,134
SRR1377862.vcf:1	16341649	.	C	T	78	.	DP=206;AD=74,132;VDB=4.63032e-05;SGB=-0.693147;RPB=0.365998;MQB=1;MQSB=1;BQB=1.10615e-10;MQ0F=0;ICB=1;HOB=0.5;AC=1;AN=2;DP4=61,13,103,29;MQ=20	GT:PL:AD	0/1:111,0,54:74,132
SRR1381348.vcf:1	16341649	.	C	T	77	.	DP=247;AD=93,153;VDB=3.76766e-06;SGB=-0.693147;RPB=0.395127;MQB=1;MQSB=1;BQB=2.53047e-06;MQ0F=0;ICB=1;HOB=0.5;AC=1;AN=2;DP4=83,10,127,26;MQ=20	GT:PL:AD	0/1:110,0,50:93,153
SRR1381775.vcf:1	16341649	.	C	T	89	.	DP=242;AD=91,149;VDB=6.17287e-08;SGB=-0.693147;RPB=0.772435;MQB=1;MQSB=1;BQB=1.10055e-06;MQ0F=0;ICB=1;HOB=0.5;AC=1;AN=2;DP4=73,18,112,37;MQ=20	GT:PL:AD	0/1:122,0,68:91,149
SRR1384371.vcf:1	16341649	.	C	T	77	.	DP=167;AD=57,109;VDB=0.951522;SGB=-0.693147;RPB=0.283328;MQB=1;MQSB=1;BQB=0.00179826;MQ0F=0;ICB=1;HOB=0.5;AC=1;AN=2;DP4=38,19,82,27;MQ=20	GT:PL:AD	0/1:110,0,69:57,109
SRR1385277.vcf:1	16341649	.	C	T	99	.	DP=206;AD=93,112;VDB=0.057183;SGB=-0.693147;RPB=0.510297;MQB=1;MQSB=1;BQB=2.64266e-08;MQ0F=0;ICB=1;HOB=0.5;AC=1;AN=2;DP4=74,19,81,31;MQ=20	GT:PL:AD	0/1:132,0,108:93,112
SRR1387054.vcf:1	16341649	.	C	T	15.4275	.	DP=122;AD=51,70;VDB=0.945587;SGB=-0.693147;RPB=0.9782;MQB=1;BQB=0.126369;MQ0F=0;ICB=1;HOB=0.5;AC=1;AN=2;DP4=51,0,70,0;MQ=20	GT:PL:AD	0/1:48,0,37:51,70
SRR1387222.vcf:1	16341649	.	C	T	103	.	DP=223;AD=87,134;VDB=1.38171e-06;SGB=-0.693147;RPB=0.206406;MQB=1;MQSB=1;BQB=1.54367e-07;MQ0F=0;ICB=1;HOB=0.5;AC=1;AN=2;DP4=66,21,84,50;MQ=20	GT:PL:AD	0/1:136,0,84:87,134
SRR1388809.vcf:1	16341649	.	C	T	94	.	DP=177;AD=65,110;VDB=0.232994;SGB=-0.693147;RPB=0.998479;MQB=1;MQSB=1;BQB=1.87001e-06;MQ0F=0;ICB=1;HOB=0.5;AC=1;AN=2;DP4=56,9,73,38;MQ=20	GT:PL:AD	0/1:127,0,57:65,110
SRR1390437.vcf:1	16341649	.	C	T	92	.	DP=254;AD=106,146;VDB=8.7439e-07;SGB=-0.693147;RPB=0.975014;MQB=1;MQSB=1;BQB=0.612598;MQ0F=0;ICB=1;HOB=0.5;AC=1;AN=2;DP4=91,15,117,29;MQ=20	GT:PL:AD	0/1:125,0,85:106,146
SRR1392186.vcf:1	16341649	.	C	T	85	.	DP=184;AD=63,118;VDB=9.76865e-06;SGB=-0.693147;RPB=0.273752;MQB=1;MQSB=1;BQB=8.44597e-11;MQ0F=0;ICB=1;HOB=0.5;AC=1;AN=2;DP4=50,13,79,39;MQ=20	GT:PL:AD	0/1:118,0,55:63,118
SRR1392901.vcf:1	16341649	.	C	T	85	.	DP=261;AD=88,171;VDB=6.30833e-14;SGB=-0.693147;RPB=0.173627;MQB=1;MQSB=1;BQB=0.00188069;MQ0F=0;ICB=1;HOB=0.5;AC=1;AN=2;DP4=67,21,111,60;MQ=20	GT:PL:AD	0/1:118,0,44:88,171
SRR1396250.vcf:1	16341649	.	C	T	92	.	DP=262;AD=104,157;VDB=3.9576e-11;SGB=-0.693147;RPB=0.829989;MQB=1;MQSB=1;BQB=0.328833;MQ0F=0;ICB=1;HOB=0.5;AC=1;AN=2;DP4=87,17,121,36;MQ=20	GT:PL:AD	0/1:125,0,75:104,157
SRR1396786.vcf:1	16341649	.	C	T	87	.	DP=208;AD=83,123;VDB=1.94901e-05;SGB=-0.693147;RPB=0.92691;MQB=1;MQSB=1;BQB=6.86718e-09;MQ0F=0;ICB=1;HOB=0.5;AC=1;AN=2;DP4=74,9,98,25;MQ=20	GT:PL:AD	0/1:120,0,66:83,123
SRR1397218.vcf:1	16341649	.	C	T	81	.	DP=176;AD=59,114;VDB=0.000115647;SGB=-0.693147;RPB=0.0336139;MQB=1;MQSB=1;BQB=1.08518e-10;MQ0F=0;ICB=1;HOB=0.5;AC=1;AN=2;DP4=50,9,80,34;MQ=20	GT:PL:AD	0/1:114,0,42:59,114
SRR1400551.vcf:1	16341649	.	C	T	88	.	DP=220;AD=74,145;VDB=3.44383e-05;SGB=-0.693147;RPB=0.77272;MQB=1;MQSB=1;BQB=1.91204e-05;MQ0F=0;ICB=1;HOB=0.5;AC=1;AN=2;DP4=50,24,83,62;MQ=20	GT:PL:AD	0/1:121,0,52:74,145
SRR1400823.vcf:1	16341649	.	C	T	81	.	DP=206;AD=74,132;VDB=7.75977e-06;SGB=-0.693147;RPB=0.0522051;MQB=1;MQSB=1;BQB=6.70917e-12;MQ0F=0;ICB=1;HOB=0.5;AC=1;AN=2;DP4=59,15,99,33;MQ=20	GT:PL:AD	0/1:114,0,58:74,132
SRR1401752.vcf:1	16341649	.	C	T	78	.	DP=249;AD=84,165;VDB=5.44493e-06;SGB=-0.693147;RPB=0.998337;MQB=1;MQSB=1;BQB=0.0810862;MQ0F=0;ICB=1;HOB=0.5;AC=1;AN=2;DP4=64,20,114,51;MQ=20	GT:PL:AD	0/1:111,0,38:84,165
SRR1418022.vcf:1	16341649	.	C	T	65	.	DP=247;AD=84,162;VDB=0.000242173;SGB=-0.693147;RPB=0.895625;MQB=1;MQSB=1;BQB=0.169284;MQ0F=0;ICB=1;HOB=0.5;AC=1;AN=2;DP4=73,11,133,29;MQ=20	GT:PL:AD	0/1:98,0,25:84,162
SRR1418561.vcf:1	16341649	.	C	T	73	.	DP=275;AD=98,176;VDB=1.878e-13;SGB=-0.693147;RPB=0.578286;MQB=1;MQSB=1;BQB=0.211325;MQ0F=0;ICB=1;HOB=0.5;AC=1;AN=2;DP4=79,19,144,32;MQ=20	GT:PL:AD	0/1:106,0,49:98,176
SRR1430489.vcf:1	16341649	.	C	T	92	.	DP=240;AD=92,148;VDB=1.44087e-07;SGB=-0.693147;RPB=0.314859;MQB=1;MQSB=1;BQB=7.18899e-06;MQ0F=0;ICB=1;HOB=0.5;AC=1;AN=2;DP4=81,11,108,40;MQ=20	GT:PL:AD	0/1:125,0,57:92,148
SRR1431927.vcf:1	16341649	.	C	T	95	.	DP=236;AD=87,145;VDB=4.56347e-15;SGB=-0.693147;RPB=0.0429017;MQB=1;MQSB=1;BQB=1.3377e-07;MQ0F=0;ICB=1;HOB=0.5;AC=1;AN=2;DP4=64,23,96,49;MQ=20	GT:PL:AD	0/1:128,0,74:87,145
SRR1432453.vcf:1	16341649	.	C	T	92	.	DP=246;AD=95,151;VDB=1.36065e-10;SGB=-0.693147;RPB=0.962616;MQB=1;MQSB=1;BQB=0.00044762;MQ0F=0;ICB=1;HOB=0.5;AC=1;AN=2;DP4=80,15,111,40;MQ=20	GT:PL:AD	0/1:125,0,67:95,151
SRR1433290.vcf:1	16341649	.	C	T	97	.	DP=261;AD=102,159;VDB=9.96926e-07;SGB=-0.693147;RPB=0.385604;MQB=1;MQSB=1;BQB=0.00354369;MQ0F=0;ICB=1;HOB=0.5;AC=1;AN=2;DP4=76,26,115,44;MQ=20	GT:PL:AD	0/1:130,0,86:102,159
SRR1435248.vcf:1	16341649	.	C	T	83	.	DP=210;AD=74,136;VDB=2.15462e-08;SGB=-0.693147;RPB=0.00578017;MQB=1;MQSB=1;BQB=4.33315e-14;MQ0F=0;ICB=1;HOB=0.5;AC=1;AN=2;DP4=61,13,97,39;MQ=20	GT:PL:AD	0/1:116,0,48:74,136
SRR1435311.vcf:1	16341649	.	C	T	58	.	DP=228;AD=66,160;VDB=0.00455531;SGB=-0.693147;RPB=0.860819;MQB=1;MQSB=1;BQB=7.62124e-07;MQ0F=0;ICB=1;HOB=0.5;AC=1;AN=2;DP4=47,19,108,53;MQ=20	GT:PL:AD	0/1:88,0,4:66,160
SRR1464681.vcf:1	16341649	.	C	T	64	.	DP=205;AD=68,136;VDB=0.323873;SGB=-0.693147;RPB=0.832723;MQB=1;MQSB=1;BQB=2.88667e-10;MQ0F=0;ICB=1;HOB=0.5;AC=1;AN=2;DP4=61,7,110,26;MQ=20	GT:PL:AD	0/1:97,0,19:68,136
SRR1466512.vcf:1	16341649	.	C	T	109	.	DP=238;AD=97,141;VDB=1.4214e-07;SGB=-0.693147;RPB=0.739473;MQB=1;MQSB=1;BQB=0.000573483;MQ0F=0;ICB=1;HOB=0.5;AC=1;AN=2;DP4=74,23,85,56;MQ=20	GT:PL:AD	0/1:142,0,91:97,141
SRR1467567.vcf:1	16341649	.	C	T	85	.	DP=220;AD=80,139;VDB=4.78297e-05;SGB=-0.693147;RPB=0.48846;MQB=1;MQSB=1;BQB=2.22259e-08;MQ0F=0;ICB=1;HOB=0.5;AC=1;AN=2;DP4=68,12,102,37;MQ=20	GT:PL:AD	0/1:118,0,52:80,139
SRR1468532.vcf:1	16341649	.	C	T	87	.	DP=260;AD=90,167;VDB=7.18329e-10;SGB=-0.693147;RPB=0.194041;MQB=1;MQSB=1;BQB=1.29784e-05;MQ0F=0;ICB=1;HOB=0.5;AC=1;AN=2;DP4=64,26,116,52;MQ=20	GT:PL:AD	0/1:120,0,57:90,167
SRR1468658.vcf:1	16341649	.	C	T	82	.	DP=220;AD=81,139;VDB=0.000716196;SGB=-0.693147;RPB=0.565117;MQB=1;MQSB=1;BQB=1.57855e-12;MQ0F=0;ICB=1;HOB=0.5;AC=1;AN=2;DP4=71,10,107,32;MQ=20	GT:PL:AD	0/1:115,0,48:81,139
SRR1471117.vcf:1	16341649	.	C	T	91	.	DP=207;AD=94,113;VDB=9.15672e-05;SGB=-0.693147;RPB=0.657417;MQB=1;MQSB=1;BQB=1.84359e-06;MQ0F=0;ICB=1;HOB=0.5;AC=1;AN=2;DP4=76,18,89,24;MQ=20	GT:PL:AD	0/1:124,0,106:94,113
SRR1472794.vcf:1	16341649	.	C	T	61	.	DP=178;AD=66,111;VDB=0.0240334;SGB=-0.693147;RPB=0.627038;MQB=1;MQSB=1;BQB=1.46953e-06;MQ0F=0;ICB=1;HOB=0.5;AC=1;AN=2;DP4=62,4,99,12;MQ=20	GT:PL:AD	0/1:94,0,36:66,111
SRR1473078.vcf:1	16341649	.	C	T	37.5018	.	DP=148;AD=52,96;VDB=0.882932;SGB=-0.693147;RPB=0.992278;MQB=1;MQSB=1;BQB=0.00229375;MQ0F=0;ICB=1;HOB=0.5;AC=1;AN=2;DP4=51,1,90,6;MQ=20	GT:PL:AD	0/1:70,0,14:52,96
SRR1475300.vcf:1	16341649	.	C	T	82	.	DP=226;AD=78,143;VDB=4.89077e-14;SGB=-0.693147;RPB=0.0102433;MQB=1;MQSB=1;BQB=4.68265e-07;MQ0F=0;ICB=1;HOB=0.5;AC=1;AN=2;DP4=64,14,104,39;MQ=20	GT:PL:AD	0/1:115,0,48:78,143
SRR1478362.vcf:1	16341649	.	C	T	87	.	DP=217;AD=82,133;VDB=0.00300384;SGB=-0.693147;RPB=0.995933;MQB=1;MQSB=1;BQB=2.03772e-09;MQ0F=0;ICB=1;HOB=0.5;AC=1;AN=2;DP4=67,15,102,31;MQ=20	GT:PL:AD	0/1:120,0,69:82,133
SRR1480038.vcf:1	16341649	.	C	G	16.3966	.	DP=90;AD=51,37;VDB=0.618659;SGB=-0.693141;RPB=0.0137132;MQB=1;MQSB=1;BQB=0.0275953;MQ0F=0;ICB=1;HOB=0.5;AC=1;AN=2;DP4=39,12,36,1;MQ=20	GT:PL:AD	0/1:49,0,120:51,37
SRR1480455.vcf:1	16341649	.	C	T	78	.	DP=272;AD=95,177;VDB=2.16641e-08;SGB=-0.693147;RPB=0.182388;MQB=1;MQSB=1;BQB=0.454252;MQ0F=0;ICB=1;HOB=0.5;AC=1;AN=2;DP4=70,25,127,50;MQ=20	GT:PL:AD	0/1:111,0,43:95,177
SRR1481083.vcf:1	16341649	.	C	T	90	.	DP=187;AD=72,113;VDB=0.218722;SGB=-0.693147;RPB=0.603314;MQB=1;MQSB=1;BQB=6.07977e-07;MQ0F=0;ICB=1;HOB=0.5;AC=1;AN=2;DP4=66,6,84,29;MQ=20	GT:PL:AD	0/1:123,0,52:72,113
SRR1486156.vcf:1	16341649	.	C	T	57	.	DP=208;AD=60,147;VDB=0.023567;SGB=-0.693147;RPB=0.455272;MQB=1;MQSB=1;BQB=4.56855e-06;MQ0F=0;ICB=1;HOB=0.5;AC=1;AN=2;DP4=35,25,97,50;MQ=20	GT:PL:AD	0/1:90,0,19:60,147
SRR1486799.vcf:1	16341649	.	C	T	84	.	DP=234;AD=81,151;VDB=3.58226e-10;SGB=-0.693147;RPB=0.0879679;MQB=1;MQSB=1;BQB=5.13126e-05;MQ0F=0;ICB=1;HOB=0.5;AC=1;AN=2;DP4=63,18,103,48;MQ=20	GT:PL:AD	0/1:117,0,49:81,151
SRR1487570.vcf:1	16341649	.	C	T	68	.	DP=249;AD=86,163;VDB=2.56885e-06;SGB=-0.693147;RPB=0.741984;MQB=1;MQSB=1;BQB=0.00159067;MQ0F=0;ICB=1;HOB=0.5;AC=1;AN=2;DP4=75,11,133,30;MQ=20	GT:PL:AD	0/1:101,0,28:86,163
SRR1488091.vcf:1	16341649	.	C	T	80	.	DP=242;AD=84,156;VDB=0.000324507;SGB=-0.693147;RPB=0.986367;MQB=1;MQSB=1;BQB=0.000232508;MQ0F=0;ICB=1;HOB=0.5;AC=1;AN=2;DP4=72,12,114,42;MQ=20	GT:PL:AD	0/1:113,0,36:84,156
SRR1488214.vcf:1	16341649	.	C	T	64	.	DP=205;AD=61,142;VDB=0.00377816;SGB=-0.693147;RPB=0.602954;MQB=1;MQSB=1;BQB=7.38026e-10;MQ0F=0;ICB=1;HOB=0.5;AC=1;AN=2;DP4=50,11,94,48;MQ=20	GT:PL:AD	0/1:95,0,7:61,142
SRR1489286.vcf:1	16341649	.	C	T	82	.	DP=220;AD=76,143;VDB=0.0291167;SGB=-0.693147;RPB=0.896837;MQB=1;MQSB=1;BQB=7.22303e-06;MQ0F=0;ICB=1;HOB=0.5;AC=1;AN=2;DP4=65,11,100,44;MQ=20	GT:PL:AD	0/1:115,0,37:76,143
SRR1489307.vcf:1	16341649	.	C	T	86	.	DP=198;AD=76,122;VDB=0.00865194;SGB=-0.693147;RPB=0.138993;MQB=1;MQSB=1;BQB=9.74429e-11;MQ0F=0;ICB=1;HOB=0.5;AC=1;AN=2;DP4=68,8,94,28;MQ=20	GT:PL:AD	0/1:119,0,55:76,122
SRR1490037.vcf:1	16341649	.	C	T	76	.	DP=239;AD=84,153;VDB=0.00429602;SGB=-0.693147;RPB=0.917885;MQB=1;MQSB=1;BQB=7.30603e-05;MQ0F=0;ICB=1;HOB=0.5;AC=1;AN=2;DP4=72,12,120,33;MQ=20	GT:PL:AD	0/1:109,0,40:84,153
SRR1499566.vcf:1	16341649	.	C	T	71	.	DP=231;AD=72,158;VDB=0.000116991;SGB=-0.693147;RPB=0.845622;MQB=1;MQSB=1;BQB=3.83028e-05;MQ0F=0;ICB=1;HOB=0.5;AC=1;AN=2;DP4=51,21,99,59;MQ=20	GT:PL:AD	0/1:104,0,24:72,158
SRR1499740.vcf:1	16341649	.	C	T	87	.	DP=207;AD=78,124;VDB=0.00975571;SGB=-0.693147;RPB=0.999484;MQB=1;MQSB=1;BQB=2.40638e-05;MQ0F=0;ICB=1;HOB=0.5;AC=1;AN=2;DP4=71,7,95,29;MQ=20	GT:PL:AD	0/1:120,0,52:78,124
SRR1499764.vcf:1	16341649	.	C	T	109	.	DP=249;AD=109,138;VDB=0.000937231;SGB=-0.693147;RPB=0.640821;MQB=1;MQSB=1;BQB=5.34621e-05;MQ0F=0;ICB=1;HOB=0.5;AC=1;AN=2;DP4=73,36,91,47;MQ=20	GT:PL:AD	0/1:142,0,118:109,138
SRR1500323.vcf:1	16341649	.	C	T	70	.	DP=198;AD=62,134;VDB=0.036325;SGB=-0.693147;RPB=0.978774;MQB=1;MQSB=1;BQB=1.08569e-06;MQ0F=0;ICB=1;HOB=0.5;AC=1;AN=2;DP4=55,7,94,40;MQ=20	GT:PL:AD	0/1:102,0,9:62,134
SRR612227.vcf:1	16341649	.	C	T	69	.	DP=228;AD=72,152;VDB=6.70314e-06;SGB=-0.693147;RPB=0.808343;MQB=1;MQSB=1;BQB=0.000369444;MQ0F=0;ICB=1;HOB=0.5;AC=1;AN=2;DP4=53,19,104,48;MQ=20	GT:PL:AD	0/1:102,0,31:72,152
SRR612539.vcf:1	16341649	.	C	T	89	.	DP=266;AD=104,156;VDB=1.0353e-08;SGB=-0.693147;RPB=0.425071;MQB=1;MQSB=1;BQB=0.920831;MQ0F=0;ICB=1;HOB=0.5;AC=1;AN=2;DP4=78,26,125,32;MQ=20	GT:PL:AD	0/1:122,0,84:104,156
SRR612695.vcf:1	16341649	.	C	T	103	.	DP=275;AD=112,153;VDB=1.36833e-16;SGB=-0.693147;RPB=0.931032;MQB=1;MQSB=1;BQB=0.981686;MQ0F=0;ICB=1;HOB=0.5;AC=1;AN=2;DP4=88,24,110,43;MQ=20	GT:PL:AD	0/1:136,0,93:112,153
SRR612803.vcf:1	16341649	.	C	G	56	.	DP=164;AD=74,57;VDB=0.900076;SGB=-0.693147;RPB=4.48954e-08;MQB=1;MQSB=1;BQB=0.037271;MQ0F=0;ICB=1;HOB=0.5;AC=1;AN=2;DP4=48,26,48,9;MQ=20	GT:PL:AD	0/1:89,0,134:74,57
SRR612839.vcf:1	16341649	.	C	T	83	.	DP=241;AD=95,145;VDB=1.76029e-07;SGB=-0.693147;RPB=0.985145;MQB=1;MQSB=1;BQB=0.0489505;MQ0F=0;ICB=1;HOB=0.5;AC=1;AN=2;DP4=78,17,120,25;MQ=20	GT:PL:AD	0/1:116,0,77:95,145
SRR613282.vcf:1	16341649	.	C	T	104	.	DP=196;AD=79,113;VDB=0.000104183;SGB=-0.693147;RPB=0.352081;MQB=1;MQSB=1;BQB=1.27869e-08;MQ0F=0;ICB=1;HOB=0.5;AC=1;AN=2;DP4=60,19,70,43;MQ=20	GT:PL:AD	0/1:137,0,95:79,113
SRR613426.vcf:1	16341649	.	C	G	71	.	DP=212;AD=84,104;VDB=0.492012;SGB=-0.693147;RPB=0.00013252;MQB=1;MQSB=1;BQB=0.959621;MQ0F=0;ICB=1;HOB=0.5;AC=1;AN=2;DP4=62,22,92,12;MQ=20	GT:PL:AD	0/1:104,0,111:84,104
SRR613699.vcf:1	16341649	.	C	T	102	.	DP=265;AD=111,150;VDB=2.73576e-16;SGB=-0.693147;RPB=0.0792907;MQB=1;MQSB=1;BQB=0.595899;MQ0F=0;ICB=1;HOB=0.5;AC=1;AN=2;DP4=93,18,108,42;MQ=20	GT:PL:AD	0/1:135,0,82:111,150
SRR613879.vcf:1	16341649	.	C	T	103	.	DP=265;AD=102,155;VDB=2.75318e-12;SGB=-0.693147;RPB=0.228694;MQB=1;MQSB=1;BQB=0.478884;MQ0F=0;ICB=1;HOB=0.5;AC=1;AN=2;DP4=66,36,103,52;MQ=20	GT:PL:AD	0/1:136,0,96:102,155
SRR614575.vcf:1	16341649	.	C	T	81	.	DP=209;AD=70,133;VDB=0.00145843;SGB=-0.693147;RPB=0.584177;MQB=1;MQSB=1;BQB=3.73407e-06;MQ0F=0;ICB=1;HOB=0.5;AC=1;AN=2;DP4=53,17,93,40;MQ=20	GT:PL:AD	0/1:114,0,53:70,133
SRR614599.vcf:1	16341649	.	C	T	57	.	DP=264;AD=75,177;VDB=9.62607e-09;SGB=-0.693147;RPB=0.886242;MQB=1;MQSB=1;BQB=0.324245;MQ0F=0;ICB=1;HOB=0.5;AC=1;AN=2;DP4=46,29,118,59;MQ=20	GT:PL:AD	0/1:88,0,8:75,177
SRR615225.vcf:1	16341649	.	C	T	68	.	DP=243;AD=79,153;VDB=8.87428e-07;SGB=-0.693147;RPB=0.843168;MQB=1;MQSB=1;BQB=0.0056739;MQ0F=0;ICB=1;HOB=0.5;AC=1;AN=2;DP4=64,15,122,32;MQ=20	GT:PL:AD	0/1:101,0,37:79,153
SRR615479.vcf:1	16341649	.	C	T	77	.	DP=263;AD=89,168;VDB=2.78802e-13;SGB=-0.693147;RPB=0.961679;MQB=1;MQSB=1;BQB=0.224524;MQ0F=0;ICB=1;HOB=0.5;AC=1;AN=2;DP4=67,22,123,45;MQ=20	GT:PL:AD	0/1:110,0,44:89,168
SRR818600.vcf:1	16341649	.	C	T	84	.	DP=198;AD=72,122;VDB=0.000263917;SGB=-0.693147;RPB=0.951606;MQB=1;MQSB=1;BQB=1.89439e-06;MQ0F=0;ICB=1;HOB=0.5;AC=1;AN=2;DP4=61,11,92,30;MQ=20	GT:PL:AD	0/1:117,0,58:72,122
SRR818901.vcf:1	16341649	.	C	T	81	.	DP=253;AD=87,164;VDB=8.39392e-05;SGB=-0.693147;RPB=0.762603;MQB=1;MQSB=1;BQB=0.127958;MQ0F=0;ICB=1;HOB=0.5;AC=1;AN=2;DP4=70,17,112,52;MQ=20	GT:PL:AD	0/1:114,0,40:87,164
SRR820907.vcf:1	16341649	.	C	T	69	.	DP=181;AD=59,122;VDB=0.00471386;SGB=-0.693147;RPB=0.999495;MQB=1;MQSB=1;BQB=1.59484e-05;MQ0F=0;ICB=1;HOB=0.5;AC=1;AN=2;DP4=52,7,91,31;MQ=20	GT:PL:AD	0/1:102,0,22:59,122
